"","VBF","ggF","Vgamma","MisID","Z+jets","other H","non WW","WW","Top","Data"
"CR_Ztt","4.07 +/- 0.08","2.86 +/- 0.16","12.71 +/- 2.81","29.06 +/- 7.33","403.13 +/- 15.81","5.73 +/- 0.15","6.41 +/- 1.01","21.81 +/- 1.04","56.21 +/- 3.00","501"
"CR_top","5.04 +/- 0.10","5.38 +/- 0.25","3.78 +/- 1.44","193.27 +/- 16.34","54.86 +/- 5.70","1.44 +/- 0.11","7.71 +/- 1.17","52.13 +/- 1.68","7304.42 +/- 37.22","7668"
"SR","43.85 +/- 0.26","39.00 +/- 0.62","28.86 +/- 7.96","137.35 +/- 10.76","325.73 +/- 17.38","6.26 +/- 0.20","48.08 +/- 3.17","397.22 +/- 5.22","1293.41 +/- 15.03","2164"
