%!PS-Adobe-3.0 EPSF-3.0
%Produced by poppler pdftops version: 0.57.0 (http://poppler.freedesktop.org)
%%Creator: TeX
%%LanguageLevel: 2
%%DocumentSuppliedResources: (atend)
%%BoundingBox: 0 0 2597 1216
%%HiResBoundingBox: 0 0 2596.861 1215.578
%%DocumentSuppliedResources: (atend)
%%EndComments
%%BeginProlog
%%BeginResource: procset xpdf 3.00 0
%%Copyright: Copyright 1996-2011 Glyph & Cog, LLC
/xpdf 75 dict def xpdf begin
% PDF special state
/pdfDictSize 15 def
/pdfSetup {
  /setpagedevice where {
    pop 2 dict begin
      /Policies 1 dict dup begin /PageSize 6 def end def
      { /Duplex true def } if
    currentdict end setpagedevice
  } {
    pop
  } ifelse
} def
/pdfSetupPaper {
  % Change paper size, but only if different from previous paper size otherwise
  % duplex fails. PLRM specifies a tolerance of 5 pts when matching paper size
  % so we use the same when checking if the size changes.
  /setpagedevice where {
    pop currentpagedevice
    /PageSize known {
      2 copy
      currentpagedevice /PageSize get aload pop
      exch 4 1 roll
      sub abs 5 gt
      3 1 roll
      sub abs 5 gt
      or
    } {
      true
    } ifelse
    {
      2 array astore
      2 dict begin
        /PageSize exch def
        /ImagingBBox null def
      currentdict end
      setpagedevice
    } {
      pop pop
    } ifelse
  } {
    pop
  } ifelse
} def
/pdfStartPage {
  pdfDictSize dict begin
  /pdfFillCS [] def
  /pdfFillXform {} def
  /pdfStrokeCS [] def
  /pdfStrokeXform {} def
  /pdfFill [0] def
  /pdfStroke [0] def
  /pdfFillOP false def
  /pdfStrokeOP false def
  /pdfLastFill false def
  /pdfLastStroke false def
  /pdfTextMat [1 0 0 1 0 0] def
  /pdfFontSize 0 def
  /pdfCharSpacing 0 def
  /pdfTextRender 0 def
  /pdfPatternCS false def
  /pdfTextRise 0 def
  /pdfWordSpacing 0 def
  /pdfHorizScaling 1 def
  /pdfTextClipPath [] def
} def
/pdfEndPage { end } def
% PDF color state
/cs { /pdfFillXform exch def dup /pdfFillCS exch def
      setcolorspace } def
/CS { /pdfStrokeXform exch def dup /pdfStrokeCS exch def
      setcolorspace } def
/sc { pdfLastFill not { pdfFillCS setcolorspace } if
      dup /pdfFill exch def aload pop pdfFillXform setcolor
     /pdfLastFill true def /pdfLastStroke false def } def
/SC { pdfLastStroke not { pdfStrokeCS setcolorspace } if
      dup /pdfStroke exch def aload pop pdfStrokeXform setcolor
     /pdfLastStroke true def /pdfLastFill false def } def
/op { /pdfFillOP exch def
      pdfLastFill { pdfFillOP setoverprint } if } def
/OP { /pdfStrokeOP exch def
      pdfLastStroke { pdfStrokeOP setoverprint } if } def
/fCol {
  pdfLastFill not {
    pdfFillCS setcolorspace
    pdfFill aload pop pdfFillXform setcolor
    pdfFillOP setoverprint
    /pdfLastFill true def /pdfLastStroke false def
  } if
} def
/sCol {
  pdfLastStroke not {
    pdfStrokeCS setcolorspace
    pdfStroke aload pop pdfStrokeXform setcolor
    pdfStrokeOP setoverprint
    /pdfLastStroke true def /pdfLastFill false def
  } if
} def
% build a font
/pdfMakeFont {
  4 3 roll findfont
  4 2 roll matrix scale makefont
  dup length dict begin
    { 1 index /FID ne { def } { pop pop } ifelse } forall
    /Encoding exch def
    currentdict
  end
  definefont pop
} def
/pdfMakeFont16 {
  exch findfont
  dup length dict begin
    { 1 index /FID ne { def } { pop pop } ifelse } forall
    /WMode exch def
    currentdict
  end
  definefont pop
} def
% graphics state operators
/q { gsave pdfDictSize dict begin } def
/Q {
  end grestore
  /pdfLastFill where {
    pop
    pdfLastFill {
      pdfFillOP setoverprint
    } {
      pdfStrokeOP setoverprint
    } ifelse
  } if
} def
/cm { concat } def
/d { setdash } def
/i { setflat } def
/j { setlinejoin } def
/J { setlinecap } def
/M { setmiterlimit } def
/w { setlinewidth } def
% path segment operators
/m { moveto } def
/l { lineto } def
/c { curveto } def
/re { 4 2 roll moveto 1 index 0 rlineto 0 exch rlineto
      neg 0 rlineto closepath } def
/h { closepath } def
% path painting operators
/S { sCol stroke } def
/Sf { fCol stroke } def
/f { fCol fill } def
/f* { fCol eofill } def
% clipping operators
/W { clip newpath } def
/W* { eoclip newpath } def
/Ws { strokepath clip newpath } def
% text state operators
/Tc { /pdfCharSpacing exch def } def
/Tf { dup /pdfFontSize exch def
      dup pdfHorizScaling mul exch matrix scale
      pdfTextMat matrix concatmatrix dup 4 0 put dup 5 0 put
      exch findfont exch makefont setfont } def
/Tr { /pdfTextRender exch def } def
/Tp { /pdfPatternCS exch def } def
/Ts { /pdfTextRise exch def } def
/Tw { /pdfWordSpacing exch def } def
/Tz { /pdfHorizScaling exch def } def
% text positioning operators
/Td { pdfTextMat transform moveto } def
/Tm { /pdfTextMat exch def } def
% text string operators
/xyshow where {
  pop
  /xyshow2 {
    dup length array
    0 2 2 index length 1 sub {
      2 index 1 index 2 copy get 3 1 roll 1 add get
      pdfTextMat dtransform
      4 2 roll 2 copy 6 5 roll put 1 add 3 1 roll dup 4 2 roll put
    } for
    exch pop
    xyshow
  } def
}{
  /xyshow2 {
    currentfont /FontType get 0 eq {
      0 2 3 index length 1 sub {
        currentpoint 4 index 3 index 2 getinterval show moveto
        2 copy get 2 index 3 2 roll 1 add get
        pdfTextMat dtransform rmoveto
      } for
    } {
      0 1 3 index length 1 sub {
        currentpoint 4 index 3 index 1 getinterval show moveto
        2 copy 2 mul get 2 index 3 2 roll 2 mul 1 add get
        pdfTextMat dtransform rmoveto
      } for
    } ifelse
    pop pop
  } def
} ifelse
/cshow where {
  pop
  /xycp {
    0 3 2 roll
    {
      pop pop currentpoint 3 2 roll
      1 string dup 0 4 3 roll put false charpath moveto
      2 copy get 2 index 2 index 1 add get
      pdfTextMat dtransform rmoveto
      2 add
    } exch cshow
    pop pop
  } def
}{
  /xycp {
    currentfont /FontType get 0 eq {
      0 2 3 index length 1 sub {
        currentpoint 4 index 3 index 2 getinterval false charpath moveto
        2 copy get 2 index 3 2 roll 1 add get
        pdfTextMat dtransform rmoveto
      } for
    } {
      0 1 3 index length 1 sub {
        currentpoint 4 index 3 index 1 getinterval false charpath moveto
        2 copy 2 mul get 2 index 3 2 roll 2 mul 1 add get
        pdfTextMat dtransform rmoveto
      } for
    } ifelse
    pop pop
  } def
} ifelse
/Tj {
  fCol
  0 pdfTextRise pdfTextMat dtransform rmoveto
  currentpoint 4 2 roll
  pdfTextRender 1 and 0 eq {
    2 copy xyshow2
  } if
  pdfTextRender 3 and dup 1 eq exch 2 eq or {
    3 index 3 index moveto
    2 copy
    currentfont /FontType get 3 eq { fCol } { sCol } ifelse
    xycp currentpoint stroke moveto
  } if
  pdfTextRender 4 and 0 ne {
    4 2 roll moveto xycp
    /pdfTextClipPath [ pdfTextClipPath aload pop
      {/moveto cvx}
      {/lineto cvx}
      {/curveto cvx}
      {/closepath cvx}
    pathforall ] def
    currentpoint newpath moveto
  } {
    pop pop pop pop
  } ifelse
  0 pdfTextRise neg pdfTextMat dtransform rmoveto
} def
/TJm { 0.001 mul pdfFontSize mul pdfHorizScaling mul neg 0
       pdfTextMat dtransform rmoveto } def
/TJmV { 0.001 mul pdfFontSize mul neg 0 exch
        pdfTextMat dtransform rmoveto } def
/Tclip { pdfTextClipPath cvx exec clip newpath
         /pdfTextClipPath [] def } def
/Tclip* { pdfTextClipPath cvx exec eoclip newpath
         /pdfTextClipPath [] def } def
% Level 2/3 image operators
/pdfImBuf 100 string def
/pdfImStr {
  2 copy exch length lt {
    2 copy get exch 1 add exch
  } {
    ()
  } ifelse
} def
/skipEOD {
  { currentfile pdfImBuf readline
    not { pop exit } if
    (%-EOD-) eq { exit } if } loop
} def
/pdfIm { image skipEOD } def
/pdfImM { fCol imagemask skipEOD } def
/pr { 2 index 2 index 3 2 roll putinterval 4 add } def
/pdfImClip {
  gsave
  0 2 4 index length 1 sub {
    dup 4 index exch 2 copy
    get 5 index div put
    1 add 3 index exch 2 copy
    get 3 index div put
  } for
  pop pop rectclip
} def
/pdfImClipEnd { grestore } def
% shading operators
/colordelta {
  false 0 1 3 index length 1 sub {
    dup 4 index exch get 3 index 3 2 roll get sub abs 0.004 gt {
      pop true
    } if
  } for
  exch pop exch pop
} def
/funcCol { func n array astore } def
/funcSH {
  dup 0 eq {
    true
  } {
    dup 6 eq {
      false
    } {
      4 index 4 index funcCol dup
      6 index 4 index funcCol dup
      3 1 roll colordelta 3 1 roll
      5 index 5 index funcCol dup
      3 1 roll colordelta 3 1 roll
      6 index 8 index funcCol dup
      3 1 roll colordelta 3 1 roll
      colordelta or or or
    } ifelse
  } ifelse
  {
    1 add
    4 index 3 index add 0.5 mul exch 4 index 3 index add 0.5 mul exch
    6 index 6 index 4 index 4 index 4 index funcSH
    2 index 6 index 6 index 4 index 4 index funcSH
    6 index 2 index 4 index 6 index 4 index funcSH
    5 3 roll 3 2 roll funcSH pop pop
  } {
    pop 3 index 2 index add 0.5 mul 3 index  2 index add 0.5 mul
    funcCol sc
    dup 4 index exch mat transform m
    3 index 3 index mat transform l
    1 index 3 index mat transform l
    mat transform l pop pop h f*
  } ifelse
} def
/axialCol {
  dup 0 lt {
    pop t0
  } {
    dup 1 gt {
      pop t1
    } {
      dt mul t0 add
    } ifelse
  } ifelse
  func n array astore
} def
/axialSH {
  dup 0 eq {
    true
  } {
    dup 8 eq {
      false
    } {
      2 index axialCol 2 index axialCol colordelta
    } ifelse
  } ifelse
  {
    1 add 3 1 roll 2 copy add 0.5 mul
    dup 4 3 roll exch 4 index axialSH
    exch 3 2 roll axialSH
  } {
    pop 2 copy add 0.5 mul
    axialCol sc
    exch dup dx mul x0 add exch dy mul y0 add
    3 2 roll dup dx mul x0 add exch dy mul y0 add
    dx abs dy abs ge {
      2 copy yMin sub dy mul dx div add yMin m
      yMax sub dy mul dx div add yMax l
      2 copy yMax sub dy mul dx div add yMax l
      yMin sub dy mul dx div add yMin l
      h f*
    } {
      exch 2 copy xMin sub dx mul dy div add xMin exch m
      xMax sub dx mul dy div add xMax exch l
      exch 2 copy xMax sub dx mul dy div add xMax exch l
      xMin sub dx mul dy div add xMin exch l
      h f*
    } ifelse
  } ifelse
} def
/radialCol {
  dup t0 lt {
    pop t0
  } {
    dup t1 gt {
      pop t1
    } if
  } ifelse
  func n array astore
} def
/radialSH {
  dup 0 eq {
    true
  } {
    dup 8 eq {
      false
    } {
      2 index dt mul t0 add radialCol
      2 index dt mul t0 add radialCol colordelta
    } ifelse
  } ifelse
  {
    1 add 3 1 roll 2 copy add 0.5 mul
    dup 4 3 roll exch 4 index radialSH
    exch 3 2 roll radialSH
  } {
    pop 2 copy add 0.5 mul dt mul t0 add
    radialCol sc
    encl {
      exch dup dx mul x0 add exch dup dy mul y0 add exch dr mul r0 add
      0 360 arc h
      dup dx mul x0 add exch dup dy mul y0 add exch dr mul r0 add
      360 0 arcn h f
    } {
      2 copy
      dup dx mul x0 add exch dup dy mul y0 add exch dr mul r0 add
      a1 a2 arcn
      dup dx mul x0 add exch dup dy mul y0 add exch dr mul r0 add
      a2 a1 arcn h
      dup dx mul x0 add exch dup dy mul y0 add exch dr mul r0 add
      a1 a2 arc
      dup dx mul x0 add exch dup dy mul y0 add exch dr mul r0 add
      a2 a1 arc h f
    } ifelse
  } ifelse
} def
end
%%EndResource
%%EndProlog
%%BeginSetup
xpdf begin
%%EndSetup
pdfStartPage
%%EndPageSetup
[] 0 d
1 i
0 j
0 J
10 M
1 w
/DeviceGray {} cs
[0] sc
/DeviceGray {} CS
[0] SC
false op
false OP
{} settransfer
0 0 2596.861 1215.578 re
W
q
/DeviceGray {} cs
[0] sc
/DeviceGray {} CS
[0] SC
/DeviceGray {} cs
[0] sc
/DeviceGray {} CS
[0] SC
/DeviceGray {} cs
[0] sc
/DeviceGray {} CS
[0] SC
/DeviceGray {} cs
[0] sc
/DeviceGray {} CS
[0] SC
/DeviceGray {} cs
[0] sc
/DeviceGray {} CS
[0] SC
[1 0 0 1 -4.769 -11.411] cm
q
/DeviceGray {} CS
[0] SC
/DeviceGray {} cs
[0] sc
0.3985 w
q
q
/DeviceRGB {} CS
[0 0 0] SC
/DeviceRGB {} cs
[0 0 0] sc
5.97766 w
14.39995 835.21106 m
86.40086 907.21199 l
S
q
q
q
q
[1.06065 1.06065 -1.06065 1.06065 30.56363 851.3732] cm
q
18.65045 0 m
13.1243 1.03613 4.14453 4.14453 -2.07227 7.77101 c
-2.07227 -7.77101 l
4.14453 -4.14453 13.1243 -1.03613 18.65045 0 c
f
Q
Q
Q
Q
Q
Q
q
Q
q
Q
q
/DeviceRGB {} CS
[0 0 0] SC
/DeviceRGB {} cs
[0 0 0] sc
5.97766 w
1900.82376 1094.41371 m
1883.5447 1128.97354 1935.38322 1077.13391 1918.10336 1111.69295 c
S
Q
q
/DeviceRGB {} CS
[0 0 0] SC
/DeviceRGB {} cs
[0 0 0] sc
5.97766 w
1918.10336 1111.69295 m
1900.82431 1146.25279 1952.66284 1094.41316 1935.38379 1128.973 c
S
Q
q
/DeviceRGB {} CS
[0 0 0] SC
/DeviceRGB {} cs
[0 0 0] sc
5.97766 w
1935.38379 1128.973 m
1918.10393 1163.53203 1969.94246 1111.6924 1952.6634 1146.25226 c
S
Q
q
/DeviceRGB {} CS
[0 0 0] SC
/DeviceRGB {} cs
[0 0 0] sc
5.97766 w
1952.6634 1146.25226 m
1935.38434 1180.81209 1987.22287 1128.97246 1969.94301 1163.5315 c
S
Q
q
/DeviceRGB {} CS
[0 0 0] SC
/DeviceRGB {} cs
[0 0 0] sc
5.97766 w
1969.94301 1163.5315 m
1952.66397 1198.09134 2004.5025 1146.25171 1987.22343 1180.81155 c
S
Q
q
Q
q
Q
q
/DeviceRGB {} CS
[0 0 0] SC
/DeviceRGB {} cs
[0 0 0] sc
5.97766 w
1238.41554 331.20465 m
1233.27364 367.20213 1264.12804 305.49226 1258.98517 341.48927 c
S
Q
q
/DeviceRGB {} CS
[0 0 0] SC
/DeviceRGB {} cs
[0 0 0] sc
5.97766 w
1258.98517 341.48927 m
1253.84328 377.48679 1284.69768 315.7769 1279.55577 351.7744 c
S
Q
q
/DeviceRGB {} CS
[0 0 0] SC
/DeviceRGB {} cs
[0 0 0] sc
5.97766 w
1279.55577 351.7744 m
1274.41293 387.77141 1305.26732 326.06152 1300.12543 362.05904 c
S
Q
q
/DeviceRGB {} CS
[0 0 0] SC
/DeviceRGB {} cs
[0 0 0] sc
5.97766 w
1300.12543 362.05904 m
1294.98354 398.05653 1325.83792 336.34665 1320.69507 372.34367 c
S
Q
q
/DeviceRGB {} CS
[0 0 0] SC
/DeviceRGB {} cs
[0 0 0] sc
5.97766 w
1320.69507 372.34367 m
1315.55318 408.34117 1346.40756 346.63129 1341.26567 382.62878 c
S
Q
q
/DeviceRGB {} CS
[0 0 0] SC
/DeviceRGB {} cs
[0 0 0] sc
5.97766 w
1341.26567 382.62878 m
1336.12282 418.62581 1366.97722 356.91594 1361.83533 392.91342 c
S
Q
q
/DeviceRGB {} CS
[0 0 0] SC
/DeviceRGB {} cs
[0 0 0] sc
5.97766 w
1361.83533 392.91342 m
1356.69342 428.91092 1387.54782 367.20105 1382.40495 403.19807 c
S
Q
q
/DeviceRGB {} CS
[0 0 0] SC
/DeviceRGB {} cs
[0 0 0] sc
5.97766 w
1958.42471 259.20372 m
2102.42654 187.2028 l
S
q
q
q
q
[1.34154 -0.67076 0.67076 1.34154 2027.64667 224.59212] cm
q
-18.65045 0 m
-13.1243 1.03613 -4.14453 4.14453 2.07227 7.77101 c
2.07227 -7.77101 l
-4.14453 -4.14453 -13.1243 -1.03613 -18.65045 0 c
f
Q
Q
Q
Q
Q
Q
q
/DeviceRGB {} CS
[0 0 0] SC
/DeviceRGB {} cs
[0 0 0] sc
5.97766 w
1987.22574 1180.81459 m
2073.62663 1224.0156 l
S
q
q
q
q
[1.34154 0.67076 -0.67076 1.34154 2005.37479 1189.8911] cm
q
18.65045 0 m
13.1243 1.03613 4.14453 4.14453 -2.07227 7.77101 c
-2.07227 -7.77101 l
4.14453 -4.14453 13.1243 -1.03613 18.65045 0 c
f
Q
Q
Q
Q
Q
Q
q
/DeviceRGB {} CS
[0 0 0] SC
/DeviceRGB {} cs
[0 0 0] sc
5.97766 w
1987.22574 921.61195 m
2073.62663 878.41095 l
S
q
q
q
q
[1.34154 -0.67076 0.67076 1.34154 2005.37479 912.53545] cm
q
18.65045 0 m
13.1243 1.03613 4.14453 4.14453 -2.07227 7.77101 c
-2.07227 -7.77101 l
4.14453 -4.14453 13.1243 -1.03613 18.65045 0 c
f
Q
Q
Q
Q
Q
Q
q
/DeviceRGB {} CS
[0 0 0] SC
/DeviceRGB {} cs
[0 0 0] sc
5.97766 w
2505.63214 316.80359 m
2592.03302 360.00458 l
S
q
q
q
q
[1.34154 0.67076 -0.67076 1.34154 2523.78119 325.8801] cm
q
18.65045 0 m
13.1243 1.03613 4.14453 4.14453 -2.07227 7.77101 c
-2.07227 -7.77101 l
4.14453 -4.14453 13.1243 -1.03613 18.65045 0 c
f
Q
Q
Q
Q
Q
Q
q
/DeviceRGB {} CS
[0 0 0] SC
/DeviceRGB {} cs
[0 0 0] sc
5.97766 w
1814.42288 921.61195 m
1900.82376 1008.01283 l
S
q
q
q
q
[1.06065 1.06065 -1.06065 1.06065 1837.76715 944.95248] cm
q
18.65045 0 m
13.1243 1.03613 4.14453 4.14453 -2.07227 7.77101 c
-2.07227 -7.77101 l
4.14453 -4.14453 13.1243 -1.03613 18.65045 0 c
f
Q
Q
Q
Q
Q
Q
q
Q
q
Q
q
/DeviceRGB {} CS
[0 0 0] SC
/DeviceRGB {} cs
[0 0 0] sc
5.97766 w
1958.42471 259.20372 m
1945.82608 293.4015 1989.02264 239.40523 1976.42319 273.60236 c
S
Q
q
/DeviceRGB {} CS
[0 0 0] SC
/DeviceRGB {} cs
[0 0 0] sc
5.97766 w
1976.42319 273.60236 m
1963.82457 307.80016 2007.02113 253.80388 1994.42252 288.00166 c
S
Q
q
/DeviceRGB {} CS
[0 0 0] SC
/DeviceRGB {} cs
[0 0 0] sc
5.97766 w
1994.42252 288.00166 m
1981.82306 322.19879 2025.01962 268.20253 2012.421 302.40031 c
S
Q
q
/DeviceRGB {} CS
[0 0 0] SC
/DeviceRGB {} cs
[0 0 0] sc
5.97766 w
2012.421 302.40031 m
1999.82236 336.59811 2043.01894 282.60184 2030.41948 316.79895 c
S
Q
q
/DeviceRGB {} CS
[0 0 0] SC
/DeviceRGB {} cs
[0 0 0] sc
5.97766 w
1900.82376 1008.01283 m
1900.82376 1094.41371 l
S
q
q
q
q
[0 1.5 -1.5 0 1900.82376 1023.23756] cm
q
18.65045 0 m
13.1243 1.03613 4.14453 4.14453 -2.07227 7.77101 c
-2.07227 -7.77101 l
4.14453 -4.14453 13.1243 -1.03613 18.65045 0 c
f
Q
Q
Q
Q
Q
Q
q
/DeviceRGB {} CS
[0 0 0] SC
/DeviceRGB {} cs
[0 0 0] sc
5.97766 w
2419.23125 360.00458 m
2548.83202 446.40546 l
S
q
q
q
q
[1.24802 0.832 -0.832 1.24802 2460.95499 387.821] cm
q
18.65045 0 m
13.1243 1.03613 4.14453 4.14453 -2.07227 7.77101 c
-2.07227 -7.77101 l
4.14453 -4.14453 13.1243 -1.03613 18.65045 0 c
f
Q
Q
Q
Q
Q
Q
q
/DeviceRGB {} CS
[0 0 0] SC
/DeviceRGB {} cs
[0 0 0] sc
5.97766 w
1526.4192 331.20465 m
1598.42012 403.20557 l
S
q
q
q
q
[1.06065 1.06065 -1.06065 1.06065 1542.5829 347.36678] cm
q
18.65045 0 m
13.1243 1.03613 4.14453 4.14453 -2.07227 7.77101 c
-2.07227 -7.77101 l
4.14453 -4.14453 13.1243 -1.03613 18.65045 0 c
f
Q
Q
Q
Q
Q
Q
q
/DeviceRGB {} CS
[0 0 0] SC
/DeviceRGB {} cs
[0 0 0] sc
5.97766 w
1987.22574 921.61195 m
2073.62663 964.81184 l
S
q
q
q
q
[1.34154 0.67076 -0.67076 1.34154 2005.37479 930.68773] cm
q
18.65045 0 m
13.1243 1.03613 4.14453 4.14453 -2.07227 7.77101 c
-2.07227 -7.77101 l
4.14453 -4.14453 13.1243 -1.03613 18.65045 0 c
f
Q
Q
Q
Q
Q
Q
q
/DeviceRGB {} CS
[0 0 0] SC
/DeviceRGB {} cs
[0 0 0] sc
5.97766 w
2246.42839 360.00458 m
2419.23125 360.00458 l
S
q
q
q
q
[1.5 0 0 1.5 2304.85411 360.00458] cm
q
18.65045 0 m
13.1243 1.03613 4.14453 4.14453 -2.07227 7.77101 c
-2.07227 -7.77101 l
4.14453 -4.14453 13.1243 -1.03613 18.65045 0 c
f
Q
Q
Q
Q
Q
Q
q
/DeviceRGB {} CS
[0 0 0] SC
/DeviceRGB {} cs
[0 0 0] sc
5.97766 w
1987.22574 1180.81459 m
2073.62663 1137.6147 l
S
q
q
q
q
[1.34154 -0.67076 0.67076 1.34154 2027.61505 1160.6188] cm
q
-18.65045 0 m
-13.1243 1.03613 -4.14453 4.14453 2.07227 7.77101 c
2.07227 -7.77101 l
-4.14453 -4.14453 -13.1243 -1.03613 -18.65045 0 c
f
Q
Q
Q
Q
Q
Q
q
/DeviceRGB {} CS
[0 0 0] SC
/DeviceRGB {} cs
[0 0 0] sc
5.97766 w
2246.42839 691.20923 m
2390.43022 619.20831 l
S
q
q
q
q
[1.34154 -0.67076 0.67076 1.34154 2315.65033 656.59763] cm
q
-18.65045 0 m
-13.1243 1.03613 -4.14453 4.14453 2.07227 7.77101 c
2.07227 -7.77101 l
-4.14453 -4.14453 -13.1243 -1.03613 -18.65045 0 c
f
Q
Q
Q
Q
Q
Q
q
/DeviceRGB {} CS
[0 0 0] SC
/DeviceRGB {} cs
[0 0 0] sc
5.97766 w
1886.4238 475.20648 m
1958.42471 547.2074 l
S
q
q
q
q
[1.06065 1.06065 -1.06065 1.06065 1902.58748 491.36862] cm
q
18.65045 0 m
13.1243 1.03613 4.14453 4.14453 -2.07227 7.77101 c
-2.07227 -7.77101 l
4.14453 -4.14453 13.1243 -1.03613 18.65045 0 c
f
Q
Q
Q
Q
Q
Q
q
Q
q
Q
q
/DeviceRGB {} CS
[0 0 0] SC
/DeviceRGB {} cs
[0 0 0] sc
5.97766 w
1382.41737 475.20648 m
1377.27547 511.20398 1408.12987 449.4941 1402.987 485.4911 c
S
Q
q
/DeviceRGB {} CS
[0 0 0] SC
/DeviceRGB {} cs
[0 0 0] sc
5.97766 w
1402.987 485.4911 m
1397.84512 521.48862 1428.69951 459.77873 1423.5576 495.77623 c
S
Q
q
/DeviceRGB {} CS
[0 0 0] SC
/DeviceRGB {} cs
[0 0 0] sc
5.97766 w
1423.5576 495.77623 m
1418.41476 531.77324 1449.26915 470.06335 1444.12727 506.06087 c
S
Q
q
/DeviceRGB {} CS
[0 0 0] SC
/DeviceRGB {} cs
[0 0 0] sc
5.97766 w
1444.12727 506.06087 m
1438.98537 542.05836 1469.83975 480.34848 1464.6969 516.3455 c
S
Q
q
/DeviceRGB {} CS
[0 0 0] SC
/DeviceRGB {} cs
[0 0 0] sc
5.97766 w
1464.6969 516.3455 m
1459.55501 552.343 1490.40941 490.63313 1485.2675 526.63062 c
S
Q
q
/DeviceRGB {} CS
[0 0 0] SC
/DeviceRGB {} cs
[0 0 0] sc
5.97766 w
1485.2675 526.63062 m
1480.12465 562.62764 1510.97905 500.91777 1505.83716 536.91527 c
S
Q
q
/DeviceRGB {} CS
[0 0 0] SC
/DeviceRGB {} cs
[0 0 0] sc
5.97766 w
1505.83716 536.91527 m
1500.69525 572.91275 1531.54965 511.20288 1526.40678 547.1999 c
S
Q
q
Q
q
Q
q
/DeviceRGB {} CS
[0 0 0] SC
/DeviceRGB {} cs
[0 0 0] sc
5.97766 w
2102.42654 835.21106 m
2138.42654 853.21066 2084.42696 799.21107 2120.42612 817.2115 c
S
Q
q
/DeviceRGB {} CS
[0 0 0] SC
/DeviceRGB {} cs
[0 0 0] sc
5.97766 w
2120.42612 817.2115 m
2156.42613 835.21106 2102.42654 781.21149 2138.42654 799.21107 c
S
Q
q
/DeviceRGB {} CS
[0 0 0] SC
/DeviceRGB {} cs
[0 0 0] sc
5.97766 w
2138.42654 799.21107 m
2174.4257 817.2115 2120.42612 763.21191 2156.42613 781.21149 c
S
Q
q
/DeviceRGB {} CS
[0 0 0] SC
/DeviceRGB {} cs
[0 0 0] sc
5.97766 w
2156.42613 781.21149 m
2192.42612 799.21107 2138.42654 745.21149 2174.4257 763.21191 c
S
Q
q
/DeviceRGB {} CS
[0 0 0] SC
/DeviceRGB {} cs
[0 0 0] sc
5.97766 w
2174.4257 763.21191 m
2210.42572 781.21149 2156.42613 727.2119 2192.42613 745.21147 c
S
Q
q
/DeviceRGB {} CS
[0 0 0] SC
/DeviceRGB {} cs
[0 0 0] sc
5.97766 w
2192.42613 745.21147 m
2228.42531 763.2119 2174.42572 709.21231 2210.42572 727.2119 c
S
Q
q
/DeviceRGB {} CS
[0 0 0] SC
/DeviceRGB {} cs
[0 0 0] sc
5.97766 w
2210.42572 727.2119 m
2246.42572 745.21147 2192.42613 691.2119 2228.42531 709.21231 c
S
Q
q
/DeviceRGB {} CS
[0 0 0] SC
/DeviceRGB {} cs
[0 0 0] sc
5.97766 w
2228.42531 709.21231 m
2264.42531 727.2119 2210.42572 673.21231 2246.42572 691.2119 c
S
Q
q
/DeviceRGB {} CS
[0 0 0] SC
/DeviceRGB {} cs
[0 0 0] sc
5.97766 w
1526.4192 547.2074 m
1598.42012 619.20831 l
S
q
q
q
q
[1.06065 1.06065 -1.06065 1.06065 1542.5829 563.36954] cm
q
18.65045 0 m
13.1243 1.03613 4.14453 4.14453 -2.07227 7.77101 c
-2.07227 -7.77101 l
4.14453 -4.14453 13.1243 -1.03613 18.65045 0 c
f
Q
Q
Q
Q
Q
Q
q
[2.98883 2.98883] 0 d
/DeviceRGB {} CS
[0 0 0] SC
/DeviceRGB {} cs
[0 0 0] sc
5.97766 w
1555.22025 144.00183 m
1728.022 273.6037 l
S
Q
q
Q
q
Q
q
/DeviceRGB {} CS
[0 0 0] SC
/DeviceRGB {} cs
[0 0 0] sc
5.97766 w
2102.42654 835.21106 m
2084.42696 871.21106 2138.42654 817.21147 2120.42612 853.21063 c
S
Q
q
/DeviceRGB {} CS
[0 0 0] SC
/DeviceRGB {} cs
[0 0 0] sc
5.97766 w
2120.42612 853.21063 m
2102.42654 889.21065 2156.42613 835.21106 2138.42654 871.21106 c
S
Q
q
/DeviceRGB {} CS
[0 0 0] SC
/DeviceRGB {} cs
[0 0 0] sc
5.97766 w
2138.42654 871.21106 m
2120.42612 907.21022 2174.4257 853.21063 2156.42613 889.21065 c
S
Q
q
/DeviceRGB {} CS
[0 0 0] SC
/DeviceRGB {} cs
[0 0 0] sc
5.97766 w
2156.42613 889.21065 m
2138.42654 925.21063 2192.42612 871.21106 2174.4257 907.21022 c
S
Q
q
/DeviceRGB {} CS
[0 0 0] SC
/DeviceRGB {} cs
[0 0 0] sc
5.97766 w
2174.4257 907.21022 m
2156.42613 943.21024 2210.42572 889.21065 2192.42613 925.21065 c
S
Q
q
/DeviceRGB {} CS
[0 0 0] SC
/DeviceRGB {} cs
[0 0 0] sc
5.97766 w
2192.42613 925.21065 m
2174.42572 961.20982 2228.42531 907.21024 2210.42572 943.21024 c
S
Q
q
/DeviceRGB {} CS
[0 0 0] SC
/DeviceRGB {} cs
[0 0 0] sc
5.97766 w
2210.42572 943.21024 m
2192.42613 979.21024 2246.42572 925.21065 2228.42531 961.20982 c
S
Q
q
/DeviceRGB {} CS
[0 0 0] SC
/DeviceRGB {} cs
[0 0 0] sc
5.97766 w
2228.42531 961.20982 m
2210.42572 997.20982 2264.42531 943.21024 2246.42572 979.21024 c
S
Q
q
Q
q
Q
q
/DeviceRGB {} CS
[0 0 0] SC
/DeviceRGB {} cs
[0 0 0] sc
5.97766 w
1814.42288 259.20372 m
1823.42308 268.20392 1805.42268 268.20392 1814.42288 277.20412 c
S
Q
q
/DeviceRGB {} CS
[0 0 0] SC
/DeviceRGB {} cs
[0 0 0] sc
5.97766 w
1814.42288 277.20412 m
1832.42249 295.20372 1850.42287 277.20332 1841.42264 268.2031 c
S
Q
q
/DeviceRGB {} CS
[0 0 0] SC
/DeviceRGB {} cs
[0 0 0] sc
5.97766 w
1841.42264 268.2031 m
1832.42326 259.20372 1814.42288 277.20412 1832.42249 295.20372 c
S
Q
q
/DeviceRGB {} CS
[0 0 0] SC
/DeviceRGB {} cs
[0 0 0] sc
5.97766 w
1832.42249 295.20372 m
1850.42204 313.20328 1868.42244 295.2029 1859.42307 286.20352 c
S
Q
q
/DeviceRGB {} CS
[0 0 0] SC
/DeviceRGB {} cs
[0 0 0] sc
5.97766 w
1859.42307 286.20352 m
1850.42287 277.20332 1832.42249 295.20372 1850.42204 313.20328 c
S
Q
q
/DeviceRGB {} CS
[0 0 0] SC
/DeviceRGB {} cs
[0 0 0] sc
5.97766 w
1850.42204 313.20328 m
1868.42247 331.2037 1886.42285 313.20331 1877.42265 304.20313 c
S
Q
q
/DeviceRGB {} CS
[0 0 0] SC
/DeviceRGB {} cs
[0 0 0] sc
5.97766 w
1877.42265 304.20313 m
1868.42244 295.2029 1850.42204 313.20328 1868.42247 331.2037 c
S
Q
q
/DeviceRGB {} CS
[0 0 0] SC
/DeviceRGB {} cs
[0 0 0] sc
5.97766 w
1868.42247 331.2037 m
1877.42184 340.20308 1877.42265 322.2035 1886.42203 331.20288 c
S
Q
q
/DeviceRGB {} CS
[0 0 0] SC
/DeviceRGB {} cs
[0 0 0] sc
5.97766 w
2246.42839 979.2129 m
2390.43022 907.21199 l
S
q
q
q
q
[1.34154 -0.67076 0.67076 1.34154 2315.65033 944.60129] cm
q
-18.65045 0 m
-13.1243 1.03613 -4.14453 4.14453 2.07227 7.77101 c
2.07227 -7.77101 l
-4.14453 -4.14453 -13.1243 -1.03613 -18.65045 0 c
f
Q
Q
Q
Q
Q
Q
q
/DeviceRGB {} CS
[0 0 0] SC
/DeviceRGB {} cs
[0 0 0] sc
5.97766 w
1900.82376 1094.41371 m
1814.42288 1180.81459 l
S
q
q
q
q
[-1.06065 1.06065 -1.06065 -1.06065 1877.4795 1117.75424] cm
q
18.65045 0 m
13.1243 1.03613 4.14453 4.14453 -2.07227 7.77101 c
-2.07227 -7.77101 l
4.14453 -4.14453 13.1243 -1.03613 18.65045 0 c
f
Q
Q
Q
Q
Q
Q
q
Q
q
Q
q
/DeviceRGB {} CS
[0 0 0] SC
/DeviceRGB {} cs
[0 0 0] sc
5.97766 w
1900.82376 1008.01283 m
1935.38322 1025.29263 1883.5447 973.453 1918.10336 990.7336 c
S
Q
q
/DeviceRGB {} CS
[0 0 0] SC
/DeviceRGB {} cs
[0 0 0] sc
5.97766 w
1918.10336 990.7336 m
1952.66284 1008.01338 1900.82431 956.17375 1935.38379 973.45354 c
S
Q
q
/DeviceRGB {} CS
[0 0 0] SC
/DeviceRGB {} cs
[0 0 0] sc
5.97766 w
1935.38379 973.45354 m
1969.94246 990.73415 1918.10393 938.89452 1952.6634 956.17429 c
S
Q
q
/DeviceRGB {} CS
[0 0 0] SC
/DeviceRGB {} cs
[0 0 0] sc
5.97766 w
1952.6634 956.17429 m
1987.22287 973.45409 1935.38434 921.61446 1969.94301 938.89505 c
S
Q
q
/DeviceRGB {} CS
[0 0 0] SC
/DeviceRGB {} cs
[0 0 0] sc
5.97766 w
1969.94301 938.89505 m
2004.5025 956.17484 1952.66397 904.3352 1987.22343 921.61499 c
S
Q
q
/DeviceRGB {} CS
[0 0 0] SC
/DeviceRGB {} cs
[0 0 0] sc
5.97766 w
1454.41829 835.21106 m
1670.42105 979.2129 l
S
q
q
q
q
[1.24802 0.832 -0.832 1.24802 1539.48045 891.922] cm
q
18.65045 0 m
13.1243 1.03613 4.14453 4.14453 -2.07227 7.77101 c
-2.07227 -7.77101 l
4.14453 -4.14453 13.1243 -1.03613 18.65045 0 c
f
Q
Q
Q
Q
Q
Q
q
Q
q
Q
q
/DeviceRGB {} CS
[0 0 0] SC
/DeviceRGB {} cs
[0 0 0] sc
5.97766 w
1238.41554 547.2074 m
1264.12804 572.91978 1233.27364 511.2099 1258.98517 536.92278 c
S
Q
q
/DeviceRGB {} CS
[0 0 0] SC
/DeviceRGB {} cs
[0 0 0] sc
5.97766 w
1258.98517 536.92278 m
1284.69768 562.63513 1253.84328 500.92526 1279.55577 526.63765 c
S
Q
q
/DeviceRGB {} CS
[0 0 0] SC
/DeviceRGB {} cs
[0 0 0] sc
5.97766 w
1279.55577 526.63765 m
1305.26732 552.35051 1274.41293 490.64064 1300.12543 516.35301 c
S
Q
q
/DeviceRGB {} CS
[0 0 0] SC
/DeviceRGB {} cs
[0 0 0] sc
5.97766 w
1300.12543 516.35301 m
1325.83792 542.06538 1294.98354 480.35551 1320.69507 506.06836 c
S
Q
q
/DeviceRGB {} CS
[0 0 0] SC
/DeviceRGB {} cs
[0 0 0] sc
5.97766 w
1320.69507 506.06836 m
1346.40756 531.78075 1315.55318 470.07088 1341.26567 495.78325 c
S
Q
q
/DeviceRGB {} CS
[0 0 0] SC
/DeviceRGB {} cs
[0 0 0] sc
5.97766 w
1341.26567 495.78325 m
1366.97722 521.49611 1336.12282 459.78622 1361.83533 485.49861 c
S
Q
q
/DeviceRGB {} CS
[0 0 0] SC
/DeviceRGB {} cs
[0 0 0] sc
5.97766 w
1361.83533 485.49861 m
1387.54782 511.211 1356.69342 449.50111 1382.40495 475.21397 c
S
Q
q
/DeviceRGB {} CS
[0 0 0] SC
/DeviceRGB {} cs
[0 0 0] sc
5.97766 w
2030.42563 489.60645 m
2116.82652 446.40546 l
S
q
q
q
q
[1.34154 -0.67076 0.67076 1.34154 2070.81493 469.40993] cm
q
-18.65045 0 m
-13.1243 1.03613 -4.14453 4.14453 2.07227 7.77101 c
2.07227 -7.77101 l
-4.14453 -4.14453 -13.1243 -1.03613 -18.65045 0 c
f
Q
Q
Q
Q
Q
Q
q
/DeviceRGB {} CS
[0 0 0] SC
/DeviceRGB {} cs
[0 0 0] sc
5.97766 w
1454.41829 835.21106 m
1670.42105 691.20923 l
S
q
q
q
q
[1.24802 -0.832 0.832 1.24802 1560.17029 764.70708] cm
q
-18.65045 0 m
-13.1243 1.03613 -4.14453 4.14453 2.07227 7.77101 c
2.07227 -7.77101 l
-4.14453 -4.14453 -13.1243 -1.03613 -18.65045 0 c
f
Q
Q
Q
Q
Q
Q
q
/DeviceRGB {} CS
[0 0 0] SC
/DeviceRGB {} cs
[0 0 0] sc
5.97766 w
1094.41371 259.20372 m
1238.41554 331.20465 l
S
q
q
q
q
[1.34154 0.67076 -0.67076 1.34154 1141.3954 282.69533] cm
q
18.65045 0 m
13.1243 1.03613 4.14453 4.14453 -2.07227 7.77101 c
-2.07227 -7.77101 l
4.14453 -4.14453 13.1243 -1.03613 18.65045 0 c
f
Q
Q
Q
Q
Q
Q
q
/DeviceRGB {} CS
[0 0 0] SC
/DeviceRGB {} cs
[0 0 0] sc
5.97766 w
1526.4192 547.2074 m
1598.42012 475.20648 l
S
q
q
q
q
[1.06065 -1.06065 1.06065 1.06065 1560.1666 513.46156] cm
q
-18.65045 0 m
-13.1243 1.03613 -4.14453 4.14453 2.07227 7.77101 c
2.07227 -7.77101 l
-4.14453 -4.14453 -13.1243 -1.03613 -18.65045 0 c
f
Q
Q
Q
Q
Q
Q
q
Q
q
Q
q
/DeviceRGB {} CS
[0 0 0] SC
/DeviceRGB {} cs
[0 0 0] sc
5.97766 w
1814.42288 547.2074 m
1823.42308 538.2072 1823.42308 556.2076 1832.42326 547.2074 c
S
Q
q
/DeviceRGB {} CS
[0 0 0] SC
/DeviceRGB {} cs
[0 0 0] sc
5.97766 w
1832.42326 547.2074 m
1850.42287 529.2078 1832.42249 511.20741 1823.42226 520.20763 c
S
Q
q
/DeviceRGB {} CS
[0 0 0] SC
/DeviceRGB {} cs
[0 0 0] sc
5.97766 w
1823.42226 520.20763 m
1814.42288 529.207 1832.42326 547.2074 1850.42287 529.2078 c
S
Q
q
/DeviceRGB {} CS
[0 0 0] SC
/DeviceRGB {} cs
[0 0 0] sc
5.97766 w
1850.42287 529.2078 m
1868.42244 511.20824 1850.42204 493.20784 1841.42267 502.20721 c
S
Q
q
/DeviceRGB {} CS
[0 0 0] SC
/DeviceRGB {} cs
[0 0 0] sc
5.97766 w
1841.42267 502.20721 m
1832.42249 511.20741 1850.42287 529.2078 1868.42244 511.20824 c
S
Q
q
/DeviceRGB {} CS
[0 0 0] SC
/DeviceRGB {} cs
[0 0 0] sc
5.97766 w
1868.42244 511.20824 m
1886.42285 493.20781 1868.42247 475.20743 1859.42227 484.20761 c
S
Q
q
/DeviceRGB {} CS
[0 0 0] SC
/DeviceRGB {} cs
[0 0 0] sc
5.97766 w
1859.42227 484.20761 m
1850.42204 493.20784 1868.42244 511.20824 1886.42285 493.20781 c
S
Q
q
/DeviceRGB {} CS
[0 0 0] SC
/DeviceRGB {} cs
[0 0 0] sc
5.97766 w
1886.42285 493.20781 m
1895.42223 484.20844 1877.42265 484.20761 1886.42203 475.20824 c
S
Q
q
[2.98883 2.98883] 0 d
/DeviceRGB {} CS
[0 0 0] SC
/DeviceRGB {} cs
[0 0 0] sc
5.97766 w
1166.41463 835.21106 m
1454.41829 835.21106 l
S
Q
q
Q
q
Q
q
/DeviceRGB {} CS
[0 0 0] SC
/DeviceRGB {} cs
[0 0 0] sc
5.97766 w
1382.41737 403.20557 m
1408.12987 428.91794 1377.27547 367.20807 1402.987 392.92094 c
S
Q
q
/DeviceRGB {} CS
[0 0 0] SC
/DeviceRGB {} cs
[0 0 0] sc
5.97766 w
1402.987 392.92094 m
1428.69951 418.6333 1397.84512 356.92343 1423.5576 382.6358 c
S
Q
q
/DeviceRGB {} CS
[0 0 0] SC
/DeviceRGB {} cs
[0 0 0] sc
5.97766 w
1423.5576 382.6358 m
1449.26915 408.34868 1418.41476 346.63881 1444.12727 372.35117 c
S
Q
q
/DeviceRGB {} CS
[0 0 0] SC
/DeviceRGB {} cs
[0 0 0] sc
5.97766 w
1444.12727 372.35117 m
1469.83975 398.06355 1438.98537 336.35367 1464.6969 362.06653 c
S
Q
q
/DeviceRGB {} CS
[0 0 0] SC
/DeviceRGB {} cs
[0 0 0] sc
5.97766 w
1464.6969 362.06653 m
1490.40941 387.77892 1459.55501 326.06903 1485.2675 351.78142 c
S
Q
q
/DeviceRGB {} CS
[0 0 0] SC
/DeviceRGB {} cs
[0 0 0] sc
5.97766 w
1485.2675 351.78142 m
1510.97905 377.49428 1480.12465 315.7844 1505.83716 341.49678 c
S
Q
q
/DeviceRGB {} CS
[0 0 0] SC
/DeviceRGB {} cs
[0 0 0] sc
5.97766 w
1505.83716 341.49678 m
1531.54965 367.20917 1500.69525 305.49928 1526.40678 331.21214 c
S
Q
q
/DeviceRGB {} CS
[0 0 0] SC
/DeviceRGB {} cs
[0 0 0] sc
5.97766 w
1526.4192 331.20465 m
1598.42012 259.20372 l
S
q
q
q
q
[1.06065 -1.06065 1.06065 1.06065 1560.1666 297.4588] cm
q
-18.65045 0 m
-13.1243 1.03613 -4.14453 4.14453 2.07227 7.77101 c
2.07227 -7.77101 l
-4.14453 -4.14453 -13.1243 -1.03613 -18.65045 0 c
f
Q
Q
Q
Q
Q
Q
q
/DeviceRGB {} CS
[0 0 0] SC
/DeviceRGB {} cs
[0 0 0] sc
5.97766 w
2246.42839 979.2129 m
2390.43022 1051.21382 l
S
q
q
q
q
[1.34154 0.67076 -0.67076 1.34154 2293.41008 1002.7045] cm
q
18.65045 0 m
13.1243 1.03613 4.14453 4.14453 -2.07227 7.77101 c
-2.07227 -7.77101 l
4.14453 -4.14453 13.1243 -1.03613 18.65045 0 c
f
Q
Q
Q
Q
Q
Q
q
[2.98883 2.98883] 0 d
/DeviceRGB {} CS
[0 0 0] SC
/DeviceRGB {} cs
[0 0 0] sc
5.97766 w
1814.42288 835.21106 m
2102.42654 835.21106 l
S
Q
q
Q
q
Q
q
/DeviceRGB {} CS
[0 0 0] SC
/DeviceRGB {} cs
[0 0 0] sc
5.97766 w
2419.23125 360.00458 m
2446.22916 387.00238 2413.83228 322.2075 2440.82921 349.2058 c
S
Q
q
/DeviceRGB {} CS
[0 0 0] SC
/DeviceRGB {} cs
[0 0 0] sc
5.97766 w
2440.82921 349.2058 m
2467.82712 376.20358 2435.43025 311.4087 2462.42818 338.4065 c
S
Q
q
/DeviceRGB {} CS
[0 0 0] SC
/DeviceRGB {} cs
[0 0 0] sc
5.97766 w
2462.42818 338.4065 m
2489.42508 365.40479 2457.0282 300.60991 2484.02614 327.60768 c
S
Q
q
/DeviceRGB {} CS
[0 0 0] SC
/DeviceRGB {} cs
[0 0 0] sc
5.97766 w
2484.02614 327.60768 m
2511.02405 354.60547 2478.62717 289.8106 2505.62408 316.8089 c
S
Q
q
/DeviceRGB {} CS
[0 0 0] SC
/DeviceRGB {} cs
[0 0 0] sc
5.97766 w
1886.4238 331.20465 m
1886.4238 475.20648 l
S
q
q
q
q
[0 1.5 -1.5 0 1886.4238 375.22986] cm
q
18.65045 0 m
13.1243 1.03613 4.14453 4.14453 -2.07227 7.77101 c
-2.07227 -7.77101 l
4.14453 -4.14453 13.1243 -1.03613 18.65045 0 c
f
Q
Q
Q
Q
Q
Q
q
/DeviceRGB {} CS
[0 0 0] SC
/DeviceRGB {} cs
[0 0 0] sc
5.97766 w
1238.41554 547.2074 m
1382.41737 619.20831 l
S
q
q
q
q
[1.34154 0.67076 -0.67076 1.34154 1285.39723 570.699] cm
q
18.65045 0 m
13.1243 1.03613 4.14453 4.14453 -2.07227 7.77101 c
-2.07227 -7.77101 l
4.14453 -4.14453 13.1243 -1.03613 18.65045 0 c
f
Q
Q
Q
Q
Q
Q
q
/DeviceRGB {} CS
[0 0 0] SC
/DeviceRGB {} cs
[0 0 0] sc
5.97766 w
2246.42839 691.20923 m
2390.43022 763.21014 l
S
q
q
q
q
[1.34154 0.67076 -0.67076 1.34154 2293.41008 714.70084] cm
q
18.65045 0 m
13.1243 1.03613 4.14453 4.14453 -2.07227 7.77101 c
-2.07227 -7.77101 l
4.14453 -4.14453 13.1243 -1.03613 18.65045 0 c
f
Q
Q
Q
Q
Q
Q
q
/DeviceRGB {} CS
[0 0 0] SC
/DeviceRGB {} cs
[0 0 0] sc
5.97766 w
2030.42563 316.80359 m
2116.82652 273.6037 l
S
q
q
q
q
[1.34154 -0.67076 0.67076 1.34154 2070.81493 296.6078] cm
q
-18.65045 0 m
-13.1243 1.03613 -4.14453 4.14453 2.07227 7.77101 c
2.07227 -7.77101 l
-4.14453 -4.14453 -13.1243 -1.03613 -18.65045 0 c
f
Q
Q
Q
Q
Q
Q
q
[2.98883 2.98883] 0 d
/DeviceRGB {} CS
[0 0 0] SC
/DeviceRGB {} cs
[0 0 0] sc
5.97766 w
1382.41737 144.00183 m
1555.22025 144.00183 l
S
Q
q
/DeviceRGB {} CS
[0 0 0] SC
/DeviceRGB {} cs
[0 0 0] sc
5.97766 w
1094.41371 619.20831 m
1238.41554 547.2074 l
S
q
q
q
q
[1.34154 -0.67076 0.67076 1.34154 1141.3954 595.7167] cm
q
18.65045 0 m
13.1243 1.03613 4.14453 4.14453 -2.07227 7.77101 c
-2.07227 -7.77101 l
4.14453 -4.14453 13.1243 -1.03613 18.65045 0 c
f
Q
Q
Q
Q
Q
Q
q
[2.98883 2.98883] 0 d
/DeviceRGB {} CS
[0 0 0] SC
/DeviceRGB {} cs
[0 0 0] sc
5.97766 w
1555.22025 144.00183 m
1728.022 14.39995 l
S
Q
q
/DeviceRGB {} CS
[0 0 0] SC
/DeviceRGB {} cs
[0 0 0] sc
5.97766 w
1886.4238 331.20465 m
1958.42471 259.20372 l
S
q
q
q
q
[1.06065 -1.06065 1.06065 1.06065 1920.17119 297.4588] cm
q
-18.65045 0 m
-13.1243 1.03613 -4.14453 4.14453 2.07227 7.77101 c
2.07227 -7.77101 l
-4.14453 -4.14453 -13.1243 -1.03613 -18.65045 0 c
f
Q
Q
Q
Q
Q
Q
q
/DeviceRGB {} CS
[0 0 0] SC
/DeviceRGB {} cs
[0 0 0] sc
5.97766 w
1238.41554 331.20465 m
1382.41737 259.20372 l
S
q
q
q
q
[1.34154 -0.67076 0.67076 1.34154 1285.39723 307.71304] cm
q
18.65045 0 m
13.1243 1.03613 4.14453 4.14453 -2.07227 7.77101 c
-2.07227 -7.77101 l
4.14453 -4.14453 13.1243 -1.03613 18.65045 0 c
f
Q
Q
Q
Q
Q
Q
q
/DeviceRGB {} CS
[0 0 0] SC
/DeviceRGB {} cs
[0 0 0] sc
5.97766 w
2030.42563 489.60645 m
2116.82652 532.80634 l
S
q
q
q
q
[1.34154 0.67076 -0.67076 1.34154 2048.57468 498.68222] cm
q
18.65045 0 m
13.1243 1.03613 4.14453 4.14453 -2.07227 7.77101 c
-2.07227 -7.77101 l
4.14453 -4.14453 13.1243 -1.03613 18.65045 0 c
f
Q
Q
Q
Q
Q
Q
q
/DeviceRGB {} CS
[0 0 0] SC
/DeviceRGB {} cs
[0 0 0] sc
5.97766 w
2030.42563 316.80359 m
2116.82652 360.00458 l
S
q
q
q
q
[1.34154 0.67076 -0.67076 1.34154 2048.57468 325.8801] cm
q
18.65045 0 m
13.1243 1.03613 4.14453 4.14453 -2.07227 7.77101 c
-2.07227 -7.77101 l
4.14453 -4.14453 13.1243 -1.03613 18.65045 0 c
f
Q
Q
Q
Q
Q
Q
q
[2.98883 2.98883] 0 d
/DeviceRGB {} CS
[0 0 0] SC
/DeviceRGB {} cs
[0 0 0] sc
5.97766 w
1382.41737 403.20557 m
1382.41737 475.20648 l
S
Q
q
/DeviceRGB {} CS
[0 0 0] SC
/DeviceRGB {} cs
[0 0 0] sc
5.97766 w
2505.63214 316.80359 m
2592.03302 273.6037 l
S
q
q
q
q
[1.34154 -0.67076 0.67076 1.34154 2546.02144 296.6078] cm
q
-18.65045 0 m
-13.1243 1.03613 -4.14453 4.14453 2.07227 7.77101 c
2.07227 -7.77101 l
-4.14453 -4.14453 -13.1243 -1.03613 -18.65045 0 c
f
Q
Q
Q
Q
Q
Q
q
Q
q
Q
q
/DeviceRGB {} CS
[0 0 0] SC
/DeviceRGB {} cs
[0 0 0] sc
5.97766 w
1958.42471 547.2074 m
1989.0232 567.0057 1945.82553 513.00943 1976.42319 532.8084 c
S
Q
q
/DeviceRGB {} CS
[0 0 0] SC
/DeviceRGB {} cs
[0 0 0] sc
5.97766 w
1976.42319 532.8084 m
2007.02168 552.6067 1963.82402 498.61043 1994.42252 518.40872 c
S
Q
q
/DeviceRGB {} CS
[0 0 0] SC
/DeviceRGB {} cs
[0 0 0] sc
5.97766 w
1994.42252 518.40872 m
2025.02017 538.20769 1981.82251 484.21141 2012.421 504.00972 c
S
Q
q
/DeviceRGB {} CS
[0 0 0] SC
/DeviceRGB {} cs
[0 0 0] sc
5.97766 w
2012.421 504.00972 m
2043.01949 523.80801 1999.82181 469.81174 2030.41948 489.6107 c
S
Q
q
/DeviceRGB {} CS
[0 0 0] SC
/DeviceRGB {} cs
[0 0 0] sc
5.97766 w
1958.42471 547.2074 m
2102.42654 619.20831 l
S
q
q
q
q
[1.34154 0.67076 -0.67076 1.34154 2005.40642 570.699] cm
q
18.65045 0 m
13.1243 1.03613 4.14453 4.14453 -2.07227 7.77101 c
-2.07227 -7.77101 l
4.14453 -4.14453 13.1243 -1.03613 18.65045 0 c
f
Q
Q
Q
Q
Q
Q
Q
Q
/DeviceGray {} cs
[0] sc
/DeviceGray {} CS
[0] SC
/DeviceGray {} cs
[0] sc
/DeviceGray {} CS
[0] SC
/DeviceGray {} cs
[0] sc
/DeviceGray {} CS
[0] SC
/DeviceGray {} cs
[0] sc
/DeviceGray {} CS
[0] SC
Q
showpage
%%PageTrailer
pdfEndPage
%%Trailer
end
%%DocumentSuppliedResources:
%%EOF
